<?xml version="1.0" encoding="utf-8"?>
<!-- Generator: Adobe Illustrator 20.1.0, SVG Export Plug-In . SVG Version: 6.00 Build 0)  -->
<svg version="1.1" id="Layer_1" xmlns="http://www.w3.org/2000/svg" xmlns:xlink="http://www.w3.org/1999/xlink" x="0px" y="0px"
	 viewBox="0 0 66 66" style="enable-background:new 0 0 66 66;" xml:space="preserve">
<style type="text/css">
	.st0{fill:#0C2A7E;stroke:#0C2A7E;stroke-width:0.5;stroke-miterlimit:10;}
</style>
<g>
	<g>
		<path class="st0" d="M65.6,42.4c-1-2.1-3.4-3.2-5.5-1.9L44.5,50.7c-0.5,0.3-0.6,0.9-0.3,1.4s0.9,0.6,1.4,0.3l15.5-10.2
			c0.9-0.5,2.1-0.2,2.7,1c0.5,1.2,0.1,2.7-1,3.3L37.2,63.1c-1.5,0.9-3.3,1.1-4.9,0.6l-13.4-4.8c-0.1,0-0.3-0.1-0.4-0.1L14,59V40.5
			c2.3-0.6,9.5-2,12.7,2.1c0.6,0.7,1.5,1.2,2.5,1.2h11.5c1.1,0,2,1.1,2,2.4c0,1.3-0.9,2.4-2,2.4h-11c-1.1,0-2.1,0.6-2.7,1.7
			c-0.6,1.1-0.5,2.5,0.2,3.6c0.3,0.5,0.9,0.5,1.4,0.2s0.5-1,0.2-1.4c-0.3-0.5-0.3-1.1-0.1-1.5c0.1-0.1,0.4-0.6,0.9-0.6h11
			c2.2,0,4-2,4-4.4s-1.8-4.4-4-4.4H29.2c-0.2,0-0.7-0.1-1-0.4c-3.6-4.8-11.2-3.6-14.2-3v-2.1c0-0.6-0.4-1-1-1H1c-0.6,0-1,0.4-1,1
			v26.1c0,0.6,0.4,1,1,1h12c0.6,0,1-0.4,1-1V61l4.4-0.2l13.2,4.7c2.3,0.8,4.7,0.5,6.7-0.8l25.6-16.5C65.8,47.2,66.5,44.5,65.6,42.4z
			 M12,61.5H2V37.4h10V61.5z"/>
	</g>
	<g>
		<path class="st0" d="M25.3,37h37c0.6,0,1-0.4,1-1V10l0,0l0,0V1c0-0.6-0.4-1-1-1c-13,0-14.2,0-37,0c-0.6,0-1,0.4-1,1v35
			C24.3,36.6,24.7,37,25.3,37z M26.3,35V10.9h11.1v7c0,0.4,0.3,0.8,0.6,0.9c0.4,0.1,0.8,0,1.1-0.3l4.7-5.2l4.7,5.2
			c0.3,0.3,0.7,0.4,1.1,0.3c0.4-0.1,0.6-0.5,0.6-0.9v-7h11.1V35H26.3z M61.3,8.9H50.2V2h11.1L61.3,8.9z M48.2,2v13.4l-3.7-4.1
			C44.3,11.1,44,11,43.8,11c-0.3,0-0.6,0.1-0.7,0.3l-3.7,4.1V2H48.2z M37.4,2v6.9H26.3V2H37.4z"/>
	</g>
	<g>
		<path class="st0" d="M34.8,19.9c-0.2-0.2-0.4-0.3-0.7-0.3s-0.5,0.1-0.7,0.3l-4.3,4.3c-0.4,0.4-0.4,1,0,1.4s1,0.4,1.4,0l2.5-2.5
			v9.5c0,0.6,0.4,1,1,1s1-0.4,1-1V23l2.5,2.5c0.4,0.4,1,0.4,1.4,0s0.4-1,0-1.4L34.8,19.9z"/>
	</g>
	<g>
		<path class="st0" d="M54.2,19.9c-0.2-0.2-0.4-0.3-0.7-0.3s-0.5,0.1-0.7,0.3l-4.3,4.3c-0.4,0.4-0.4,1,0,1.4s1,0.4,1.4,0l2.5-2.5
			v9.5c0,0.6,0.4,1,1,1s1-0.4,1-1V23l2.5,2.5c0.4,0.4,1,0.4,1.4,0s0.4-1,0-1.4L54.2,19.9z"/>
	</g>
</g>
</svg>
