<?xml version="1.0" encoding="utf-8"?>
<!-- Generator: Adobe Illustrator 20.1.0, SVG Export Plug-In . SVG Version: 6.00 Build 0)  -->
<svg version="1.1" id="Layer_1" xmlns="http://www.w3.org/2000/svg" xmlns:xlink="http://www.w3.org/1999/xlink" x="0px" y="0px"
	 viewBox="0 0 78 88" style="enable-background:new 0 0 78 88;" xml:space="preserve">
<style type="text/css">
	.st0{fill:#102F7F;}
</style>
<g transform="translate(0,-952.36218)">
	<path class="st0" d="M29,952.4v6h8v3.5c0,0.8-0.1,1.1-0.3,1.4c-0.2,0.3-0.7,0.8-2.1,1.4c0,0,0,0,0,0c-3.8,1.8-6.6,5.6-6.6,10.3
		c0,3.5,1.6,6.7,4.1,8.8L8.5,996.4H17L36.4,986c0.8,0.2,1.7,0.3,2.6,0.3s1.8-0.1,2.6-0.3L61,996.4h8.5l-23.6-12.6
		c2.5-2.1,4.1-5.3,4.1-8.8c0-1.1-0.9-2-2-2s-2,0.9-2,2c0,0,0,0,0,0.1c0,3-1.7,5.5-4,6.7l-2-1.1c-0.4-0.2-0.8-0.3-1.2-0.2
		c-0.3,0-0.5,0.1-0.7,0.2l-2,1.1c-2.4-1.2-4-3.7-4-6.7c0-3,1.8-5.5,4.2-6.6c0,0,0,0,0,0c1.8-0.8,3-1.7,3.8-2.9
		c0.8-1.2,0.9-2.5,0.9-3.6v-3.5h8v-6H29L29,952.4z M0,998.4v42h78v-42L0,998.4L0,998.4z M11,1005.4h4v28h-4V1005.4L11,1005.4z
		 M24,1005.4h4v28h-4V1005.4L24,1005.4z M37,1005.4h4v28h-4V1005.4L37,1005.4z M50,1005.4h4v28h-4V1005.4L50,1005.4z M63,1005.4h4
		v28h-4V1005.4L63,1005.4z"/>
</g>
</svg>
