<?xml version="1.0" encoding="utf-8"?>
<!-- Generator: Adobe Illustrator 20.1.0, SVG Export Plug-In . SVG Version: 6.00 Build 0)  -->
<svg version="1.1" id="Layer_1" xmlns="http://www.w3.org/2000/svg" xmlns:xlink="http://www.w3.org/1999/xlink" x="0px" y="0px"
	 viewBox="0 0 60 60" style="enable-background:new 0 0 60 60;" xml:space="preserve">
<style type="text/css">
	.st0{fill:#0C2A7E;}
</style>
<path class="st0" d="M59,0H39c0,0,0,0,0,0c-0.1,0-0.2,0-0.3,0.1c0,0,0,0-0.1,0c0,0-0.1,0-0.1,0.1c0,0-0.1,0.1-0.1,0.1c0,0,0,0,0,0
	c-0.1,0.1-0.1,0.2-0.2,0.3c0,0,0,0,0,0.1C38,0.8,38,0.9,38,1v58c0,0.1,0,0.2,0.1,0.3c0,0,0,0,0,0.1c0,0.1,0.1,0.2,0.2,0.3
	c0,0,0,0,0,0c0,0,0.1,0.1,0.1,0.1c0,0,0.1,0,0.1,0.1c0,0,0.1,0,0.1,0c0.1,0,0.2,0.1,0.3,0.1h20c0.6,0,1-0.4,1-1V1
	C60,0.4,59.6,0,59,0z M53,7.7v44.6l-13,5.2v-55L53,7.7z M58,58H44.2l10.2-4.1c0.4-0.2,0.6-0.5,0.6-0.9V7c0-0.4-0.2-0.8-0.6-0.9
	L44.2,2H58V58z"/>
<rect x="49" y="28" class="st0" width="2" height="4"/>
<path class="st0" d="M4,21v23.8L0.1,56.7c-0.2,0.5,0.1,1.1,0.6,1.3l6,2C6.8,60,6.9,60,7,60c0.4,0,0.7-0.2,0.9-0.6l5-11
	c0-0.1,0.1-0.2,0.1-0.3l0.6-5.3l2.5,5.5l2,10.9c0.1,0.5,0.5,0.8,1,0.8h7c0.3,0,0.6-0.1,0.8-0.4s0.3-0.5,0.2-0.8l-2-11
	c0-0.1,0-0.1-0.1-0.2L21,37.8V35h6c1.7,0,3-1.3,3-3v-2h4c0.6,0,1-0.4,1-1V15c0-0.6-0.4-1-1-1H20c-0.6,0-1,0.4-1,1v2
	c-0.6-0.5-1.4-0.8-2.2-0.9C18.2,14.8,19,13,19,11c0-3.9-3.1-7-7-7s-7,3.1-7,7c0,2.1,0.9,4,2.4,5.3C5.4,16.9,4,18.8,4,21z M28,32
	c0,0.6-0.4,1-1,1h-7h-3.5l-6.1-8.7l3.2-1.9l4.5,7.2c0.2,0.3,0.5,0.5,0.8,0.5h1h8V32z M21,16h12v12h-4h-8v-7V16z M7,11
	c0-2.8,2.2-5,5-5s5,2.2,5,5s-2.2,5-5,5S7,13.8,7,11z M6,45V21c0-1.7,1.3-3,3-3h7c1.7,0,3,1.3,3,3v6.1l-4.2-6.6
	c-0.3-0.5-0.9-0.6-1.4-0.3l-5,3c-0.2,0.1-0.4,0.4-0.5,0.6c-0.1,0.3,0,0.6,0.2,0.8l7,10c0.2,0.3,0.5,0.4,0.8,0.4h3v3
	c0,0.1,0,0.3,0.1,0.4l4,9.9l1.8,9.7h-5L18,47.8c0-0.1,0-0.2-0.1-0.2l-4-9c-0.2-0.4-0.6-0.6-1.1-0.6c-0.4,0.1-0.8,0.4-0.8,0.9l-1,8.8
	l-4.6,10l-4.2-1.4l3.7-11.1C6,45.2,6,45.1,6,45z"/>
</svg>
