<?xml version="1.0" encoding="utf-8"?>
<!-- Generator: Adobe Illustrator 20.1.0, SVG Export Plug-In . SVG Version: 6.00 Build 0)  -->
<svg version="1.1" id="Layer_1" xmlns="http://www.w3.org/2000/svg" xmlns:xlink="http://www.w3.org/1999/xlink" x="0px" y="0px"
	 viewBox="0 0 77.9 65.4" style="enable-background:new 0 0 77.9 65.4;" xml:space="preserve">
<style type="text/css">
	.st0{fill:#102F7F;}
</style>
<g>
	<path class="st0" d="M68.9,30.3c0-2.3-1.5-4.2-3.8-4.8l-4.9-1.3c-0.9-0.2-2-0.7-2-1.8v-0.1c1.4,0.7,2.8,1,5.7,0.5
		c-4.9-4.5,5.3-19.5-4-19.8c-0.1,0-0.1,0-0.2,0c-0.2-0.2-0.5-0.3-0.7-0.4c-1.5-2-4.7-3.4-10.5-2.3c-9.5,1.9-1.9,16.4-5.9,22.6
		c2.8,0.3,4.3,0.2,6-0.7v0.3c0,1-1.1,1.5-2,1.8l-4.9,1.3c-2.3,0.6-3.8,2.5-3.8,4.8V37h30.8L68.9,30.3L68.9,30.3z M47.9,16.6
		c-0.2-0.8-0.4-1.6-0.6-2.4l-0.1-0.4l-0.4-0.1c-0.3-0.1-0.6-0.5-0.6-1.1c0-0.4,0.1-0.7,0.3-0.9l0.2-0.2l0-0.2
		c0.1-0.3,0.1-0.6,0.1-0.7c4.5-0.2,9.7-1.8,11.9-5.9c0,1.8,0.7,3,1.8,3.7c0,0.1,0,0.3,0,0.4c0,0.9,0,1,0,1.3c0,0.2-0.1,0.5-0.1,1
		l0,0.3l0.2,0.2c0.2,0.2,0.3,0.5,0.3,0.9c0,0.6-0.3,1-0.6,1.1l-0.3,0.1l-0.1,0.4c-0.2,0.8-0.4,1.6-0.7,2.4c-0.5,1.3-1.2,2.4-2,3.1
		c-1.1,0.8-2.4,1.6-3.9,1.6c0,0,0,0,0,0c-1.1,0-2.2-0.8-3.4-1.6l-0.1-0.1C48.9,18.9,48.3,17.9,47.9,16.6z M53.5,28.7
		c-2.3-0.9-3.8-2.2-4.9-3.6c1-0.6,1.5-1.4,1.5-2.5v-1c1,0.6,2,1.1,3.2,1.1c0,0,0,0,0,0c1.3,0,2.5-0.5,3.6-1.2v1c0,1,0.5,1.9,1.5,2.5
		C57.4,26.5,55.9,27.7,53.5,28.7z M61.8,31.6h0.5v0.9h-0.5V31.6z M65.1,35.5h-6v-3.6h2.1v0.6h-1.7v0.8h5.3v-0.8H63v-0.6h2.1
		L65.1,35.5L65.1,35.5z"/>
	<polygon class="st0" points="68.9,38.4 38.1,38.4 12.8,38.4 10.6,38.4 0,38.4 0,44.4 77.9,44.4 77.9,38.4 	"/>
	<rect x="7" y="45.8" class="st0" width="63.8" height="19.6"/>
	<path class="st0" d="M15.8,28.7l1,6.8c0,0.3,0.2,0.5,0.4,0.7c0.2,0.1,0.4,0.2,0.6,0.2c0.1,0,0.1,0,0.2,0l1.4-0.4c0,0,0.1,0,0.1,0
		c0.1,0,0.2,0,0.3,0l6.7-2.1l-3.3-23.1l-7.7-7.6c-0.2-0.2-0.5-0.3-0.8-0.2L13,3.3c-0.5,0.1-0.9,0.6-0.8,1.2l2.9,19.8l-4.4,12.2
		c-0.1,0.2-0.1,0.4-0.1,0.5h2.2L15.8,28.7z M18.8,28.4L15.4,5.6l7.2,6.6l2.3,16.4L18.8,28.4z"/>
</g>
</svg>
