<?xml version="1.0" encoding="utf-8"?>
<!-- Generator: Adobe Illustrator 20.1.0, SVG Export Plug-In . SVG Version: 6.00 Build 0)  -->
<svg version="1.1" id="Layer_1" xmlns="http://www.w3.org/2000/svg" xmlns:xlink="http://www.w3.org/1999/xlink" x="0px" y="0px"
	 viewBox="0 0 39.4 46" style="enable-background:new 0 0 39.4 46;" xml:space="preserve">
<style type="text/css">
	.st0{fill:#0C2A7E;stroke:#0C2A7E;stroke-width:0.2;stroke-miterlimit:10;}
</style>
<g>
	<polygon class="st0" points="20.5,14.5 22,12.6 22,6.3 20.5,6.3 	"/>
	<path class="st0" d="M30.5,7h8.8V5.4h-9.8v0.4L8.6,31.4H0.1v1.5h9.7v-0.5l6.6-8.1v4.4c-2.7,1.7-4.4,4.7-4.4,7.9
		c0,5.1,4.2,9.3,9.3,9.3c5.1,0,9.3-4.2,9.3-9.3c0-3.2-1.7-6.2-4.4-7.9V12.4L30.5,7z M21.2,33.3c1.8,0,3.3,1.5,3.3,3.3
		c0,1.8-1.5,3.3-3.3,3.3c-1.8,0-3.3-1.5-3.3-3.3C17.9,34.8,19.4,33.3,21.2,33.3z M24.9,29.8c2.5,1.4,4,4,4,6.8
		c0,4.3-3.5,7.8-7.8,7.8c-4.3,0-7.8-3.5-7.8-7.8c0-2.8,1.5-5.4,4-6.8l0.4-0.2v-7.2l2.6-3.1v12.5c-2.3,0.4-4.1,2.4-4.1,4.8
		c0,2.7,2.2,4.9,4.9,4.9s4.9-2.2,4.9-4.9c0-2.4-1.8-4.4-4.1-4.8V17.4l2.6-3.1v15.3L24.9,29.8z"/>
	<path class="st0" d="M17.9,5c0-1.8,1.5-3.3,3.3-3.3s3.3,1.5,3.3,3.3v4.5l1.5-1.9V5c0-2.7-2.2-4.9-4.9-4.9c-2.7,0-4.9,2.2-4.9,4.9
		v14.6l1.5-1.9L17.9,5z"/>
</g>
</svg>
