<?xml version="1.0" encoding="utf-8"?>
<!-- Generator: Adobe Illustrator 20.1.0, SVG Export Plug-In . SVG Version: 6.00 Build 0)  -->
<svg version="1.1" id="Layer_1" xmlns="http://www.w3.org/2000/svg" xmlns:xlink="http://www.w3.org/1999/xlink" x="0px" y="0px"
	 viewBox="0 0 86.3 46.6" style="enable-background:new 0 0 86.3 46.6;" xml:space="preserve">
<rect x="27.5" width="58.7" height="30.3"/>
 <style type="text/css">
	#Layer_1 {fill:#0a246b;}
</style>	
<path d="M16.3,33.6c-3.5,0-6.3,2.8-6.3,6.3s2.8,6.3,6.3,6.3c3.5,0,6.3-2.8,6.3-6.3C22.6,36.4,19.8,33.6,16.3,33.6 M16.3,42.6
	c-1.5,0-2.7-1.2-2.7-2.7c0-1.5,1.2-2.7,2.7-2.7c1.5,0,2.7,1.2,2.7,2.7C19.1,41.4,17.8,42.6,16.3,42.6"/>
<g>
	<g>
		<path d="M23.9,9.1H13.2C10,9.1,7.3,9.3,6,12.4c-1.3,3.2-4.1,11.4-4.1,11.4v10.4H0v6.7h8.5c0-0.2,0-0.5,0-0.7
			c0-4.5,3.5-8.2,7.8-8.2c4.3,0,7.8,3.7,7.8,8.2c0,0.2,0,0.5,0,0.7h9.4l3.9-3.7h9.4c0.7-2,2.2-3.6,4-4.5H23.9L23.9,9.1L23.9,9.1z
			 M20.1,18.5L15.4,23H5.4c0.6-1.8,2.2-6.2,2.9-8.1c1-2.5,3.1-2.6,5.6-2.6h6.2V18.5z M61.4,37.2h3.2c0.7-2,2.2-3.6,4-4.5H57.3
			C59.2,33.6,60.6,35.2,61.4,37.2z M75.2,32.7c1.8,0.9,3.3,2.5,4,4.5h7v-4.5H75.2z"/>
	</g>
</g>
<path d="M54.3,33.9c-3.5,0-6.3,2.8-6.3,6.3s2.8,6.3,6.3,6.3c3.5,0,6.3-2.8,6.3-6.3C60.6,36.7,57.8,33.9,54.3,33.9 M54.3,42.9
	c-1.5,0-2.7-1.2-2.7-2.7c0-1.5,1.2-2.7,2.7-2.7c1.5,0,2.7,1.2,2.7,2.7C57,41.7,55.8,42.9,54.3,42.9"/>
<path d="M72.2,34c-3.5,0-6.3,2.8-6.3,6.3s2.8,6.3,6.3,6.3c3.5,0,6.3-2.8,6.3-6.3C78.5,36.8,75.7,34,72.2,34 M72.2,43
	c-1.5,0-2.7-1.2-2.7-2.7c0-1.5,1.2-2.7,2.7-2.7c1.5,0,2.7,1.2,2.7,2.7C74.9,41.8,73.7,43,72.2,43"/>
<circle cx="16.8" cy="40" r="3.9"/>
<circle cx="54.3" cy="40.3" r="3.9"/>
<circle cx="72.2" cy="40.3" r="3.9"/>
</svg>
